The West Brook story - 9 Flow model
…
9  Flow model

dataFlow <- tar_read(dataFlow_target)
dFlow <- tar_read(dFlow_target)
dFlowWide <- tar_read(dFlowWide_target)

tibble(dataFlow)

# A tibble: 582,388 × 9
   Station_No Site_Name   DateTi…¹ GageH…² Disch…³ Water…⁴ AirPr…⁵ AirTe…⁶ X    
        <int> <chr>       <chr>      <dbl>   <dbl>   <dbl>   <dbl>   <dbl> <lgl>
 1    1171000 Avery Brook 2/20/20…    4.17    5.37    32.0      NA      NA NA   
 2    1171000 Avery Brook 2/20/20…    4.17    5.3     32.0      NA      NA NA   
 3    1171000 Avery Brook 2/20/20…    4.16    5.17    32.0      NA      NA NA   
 4    1171000 Avery Brook 2/20/20…    4.17    5.27    32.0      NA      NA NA   
 5    1171000 Avery Brook 2/20/20…    4.17    5.3     32.0      NA      NA NA   
 6    1171000 Avery Brook 2/20/20…    4.15    4.94    31.9      NA      NA NA   
 7    1171000 Avery Brook 2/20/20…    4.13    4.56    31.9      NA      NA NA   
 8    1171000 Avery Brook 2/20/20…    4.1     4.14    31.9      NA      NA NA   
 9    1171000 Avery Brook 2/20/20…    4.08    3.84    31.9      NA      NA NA   
10    1171000 Avery Brook 2/20/20…    4.09    4.02    31.9      NA      NA NA   
# … with 582,378 more rows, and abbreviated variable names ¹​DateTime_EST,
#   ²​GageHeight_Hobo_ft, ³​Discharge_Hobo_cfs, ⁴​WaterTemperature_HOBO_DegF,
#   ⁵​AirPressure_PSI, ⁶​AirTemperature_HOBO_degF
# ℹ Use `print(n = ...)` to see more rows
…
