The West Brook story - 4 Get electrofishing data
…
4.3 Mortality comments

Show comments related to mortalities

Code

cdWB_electro %>%
  group_by(comments) %>%
  summarize(n = n()) %>%
  arrange(desc(n)) %>%
  filter(str_detect(comments, "mort")) %>%
  print(n = 50)

# A tibble: 96 × 2
   comments                                                                    n
   <chr>                                                                   <int>
 1 shock scars/mort                                                          264
 2 shock mort                                                                136
 3 tagging mort                                                               52
 4 shocking mortality                                                         42
 5 shocking mortality; no picture                                             14
 6 shocking mort                                                               9
 7 mort                                                                        8
 8 shock scars/mort/too small to tag                                           7
 9 shocking mortality; kept for guts                                           7
10 tag mort                                                                    5
11 shock scars/mort/time is estimated based on effort                          3
12 shocking mort; no video                                                     3
13 tagging mortality                                                           3
14 mortality due to lack of oxygen; kept for otoliths                          2
15 mortality due to ms222 or warm weather                                      2
16 mortality due to shocking                                                   2
17 mortality due to shocking; no picture                                       2
18 mortality due to tagging or warm weather                                    2
19 ms222 mortality; kept for otoliths                                          2
20 shocking mortality; kept                                                    2
21 shocking mortality; kept for guts; no picture                               2
22 shocking mortality; no tag; no picture                                      2
23 smolt, shock scars/mort                                                     2
24 tagging or ms222 mortality? kept for otoliths                               2
25 walking mortality                                                           2
26 additional genetic sample / tagging mort                                    1
27 additional genetic sample/shock scars/mort                                  1
28 braid sec 29&30/shock scars/mort                                            1
29 bucket mortality; no picture                                                1
30 dope mort-with wrong picture label (as 7-1)                                 1
31 electrofishing mortality (tim did it)                                       1
32 ethanol mortality courtesy of melissa                                       1
33 fin clip but no tag and shock mort                                          1
34 four was a stepped on mort                                                  1
35 isolated pool/shock scars/mort                                              1
36 mort (222, tag?)                                                            1
37 mort (looks like a bnt)                                                     1
38 mort found                                                                  1
39 mort stepped on                                                             1
40 mort; chunk out of side (bird)                                              1
41 mort; no tag or scales                                                      1
42 mortality ; found the fish dead; looks like bites on the head and scra…     1
43 mortality ; no picture                                                      1
44 mortality due to eating; tag found in bnt (249 mm, 173.4 g)                 1
45 mortality due to lack of oxygen (stuck on side of bucket)                   1
46 mortality due to lavage                                                     1
47 mortality; cause unknown                                                    1
48 mortality; stepped on                                                       1
49 mortality; stepped on; no picture                                           1
50 mortality; tag/ms222?                                                       1
# … with 46 more rows
…
