West Brook story - 16 Growth in mass
…
16.2.2 Find outlier growth rates

16.2.2.1 Negative outlier growth

1bf20ebe4e and 1bf20ff490 have incorrect weights leading to very negative growth rates.

Exclude these tags in cd1_target. The rest of the quite negative growth fish seem plausible (remember we can’t account for stomach contents or egg loss).

Code

cd |> 
  arrange(grWeightS) |> 
  dplyr::select(tag, species, season, sampleNumber, lagSampleNumber, observedWeight, lagObservedWeight, grWeightS)

# A tibble: 24,304 × 8
   tag        species season sampleNumber lagSampleNu…¹ obser…² lagOb…³ grWeig…⁴
   <chr>      <chr>    <dbl>        <dbl>         <dbl>   <dbl>   <dbl>    <dbl>
 1 1bf20ebe4e bnt          3           55            56    46.5     4.3 -0.0320 
 2 257c67e414 bkt          3           59            60     7.3     4.4 -0.00414
 3 1bf0fec291 bkt          3           27            28     2.7     1.6 -0.00409
 4 1bf20ff490 bnt          2           54            55   167.     41.8 -0.00378
 5 257c67b532 bnt          3           63            64    34      25.5 -0.00371
 6 00088d1ad4 bnt          3           63            64     4.5     3.6 -0.00330
 7 257c67db60 bnt          3           63            64    24.2    19.5 -0.00317
 8 00088d0b59 bnt          3           63            64     3.7     3   -0.00314
 9 414b684955 ats          3           15            16     5.7     4.3 -0.00289
10 0009f6ec56 bkt          3           75            76     3.5     2.7 -0.00288
# … with 24,294 more rows, and abbreviated variable names ¹​lagSampleNumber,
#   ²​observedWeight, ³​lagObservedWeight, ⁴​grWeightS

16.2.2.2 Positive outlier growth

Lots of very fast growth mostly in the spring. No clear way to exclude fish. 1c2c582218 is excluded in cd1_target because of very high growth in length.

Code

cd1 |> 
  arrange(desc(grWeightS)) |> 
  dplyr::select(tag, species, season, sampleNumber, lagSampleNumber, observedWeight, lagObservedWeight, grWeightS) |> 
  print(n = 10)

# A tibble: 24,297 × 8
   tag        species season sampleNumber lagSampleNum…¹ obser…² lagOb…³ grWei…⁴
   <chr>      <chr>    <dbl>        <dbl>          <dbl>   <dbl>   <dbl>   <dbl>
 1 1bf1020623 bkt          1           29             30     1.3    14.4  0.0199
 2 0009f6eef4 bkt          1           77             78     2.3    10.3  0.0160
 3 413f4b1845 ats          1           13             14     1.8     8.3  0.0152
 4 1bf16366cf bnt          1           33             34     2      10.7  0.0142
 5 410a015165 ats          1           13             14     2.1     9.3  0.0142
 6 00088d2d2c bkt          1           73             74     1.8     9.2  0.0141
 7 410a0f0653 ats          1           13             14     2.2    10.9  0.0138
 8 1bf18b7637 bkt          1           33             34     2.5    13.2  0.0137
 9 1bf20e4e30 bnt          1           53             54     2.3    12.1  0.0137
10 1bf1930917 ats          1           37             38     1.9    11.7  0.0136
# … with 24,287 more rows, and abbreviated variable names ¹​lagSampleNumber,
#   ²​observedWeight, ³​lagObservedWeight, ⁴​grWeightS
…
