West Brook story - 16 Flow model
…
View Source

Code

dataFlow <- tar_read(dataFlow_target)
dFlow <- tar_read(dFlow_target)
dFlowWide <- tar_read(dFlowWide_target)

Code

tibble(dataFlow)

# A tibble: 582,388 × 9
   Station_No Site_Name   DateTime_EST   GageHeight_Hobo_ft Discharge_Hobo_cfs
        <int> <chr>       <chr>                       <dbl>              <dbl>
 1    1171000 Avery Brook 2/20/2020 0:00               4.17               5.37
 2    1171000 Avery Brook 2/20/2020 0:15               4.17               5.3 
 3    1171000 Avery Brook 2/20/2020 0:30               4.16               5.17
 4    1171000 Avery Brook 2/20/2020 0:45               4.17               5.27
 5    1171000 Avery Brook 2/20/2020 1:00               4.17               5.3 
 6    1171000 Avery Brook 2/20/2020 1:15               4.15               4.94
 7    1171000 Avery Brook 2/20/2020 1:30               4.13               4.56
 8    1171000 Avery Brook 2/20/2020 1:45               4.1                4.14
 9    1171000 Avery Brook 2/20/2020 2:00               4.08               3.84
10    1171000 Avery Brook 2/20/2020 2:15               4.09               4.02
# ℹ 582,378 more rows
# ℹ 4 more variables: WaterTemperature_HOBO_DegF <dbl>, AirPressure_PSI <dbl>,
#   AirTemperature_HOBO_degF <dbl>, X <lgl>
…
